{
  "main": {
    "id": "27efb0fe9b9bd4ca",
    "type": "split",
    "children": [
      {
        "id": "bec1323c02ec0dd4",
        "type": "tabs",
        "children": [
          {
            "id": "8670ec94c96f1aca",
            "type": "leaf",
            "state": {
              "type": "markdown",
              "state": {
                "file": "Locations.md",
                "mode": "source",
                "source": false
              }
            }
          },
          {
            "id": "0c91a8e7cf1e7cb3",
            "type": "leaf",
            "state": {
              "type": "markdown",
              "state": {
                "file": "Meals.md",
                "mode": "source",
                "source": false
              }
            }
          }
        ],
        "currentTab": 1
      }
    ],
    "direction": "vertical"
  },
  "left": {
    "id": "a409e6315ae82a50",
    "type": "split",
    "children": [
      {
        "id": "10a56595fa2afec6",
        "type": "tabs",
        "children": [
          {
            "id": "f83bbbbc6019e366",
            "type": "leaf",
            "state": {
              "type": "file-explorer",
              "state": {
                "sortOrder": "alphabetical"
              }
            }
          },
          {
            "id": "5bde03986e9d0d14",
            "type": "leaf",
            "state": {
              "type": "search",
              "state": {
                "query": "",
                "matchingCase": false,
                "explainSearch": false,
                "collapseAll": false,
                "extraContext": false,
                "sortOrder": "alphabetical"
              }
            }
          },
          {
            "id": "62b93c4e841df0b4",
            "type": "leaf",
            "state": {
              "type": "starred",
              "state": {}
            }
          }
        ]
      }
    ],
    "direction": "horizontal",
    "width": 300
  },
  "right": {
    "id": "28755d23adda0ed3",
    "type": "split",
    "children": [
      {
        "id": "f9a14edf2c294021",
        "type": "tabs",
        "children": [
          {
            "id": "c8c2c42471e97c47",
            "type": "leaf",
            "state": {
              "type": "backlink",
              "state": {
                "file": "Meals.md",
                "collapseAll": false,
                "extraContext": false,
                "sortOrder": "alphabetical",
                "showSearch": false,
                "searchQuery": "",
                "backlinkCollapsed": false,
                "unlinkedCollapsed": true
              }
            }
          },
          {
            "id": "c63ee36ceae52ca1",
            "type": "leaf",
            "state": {
              "type": "outgoing-link",
              "state": {
                "file": "Meals.md",
                "linksCollapsed": false,
                "unlinkedCollapsed": true
              }
            }
          },
          {
            "id": "681126d3e79bb4d2",
            "type": "leaf",
            "state": {
              "type": "tag",
              "state": {
                "sortOrder": "frequency",
                "useHierarchy": true
              }
            }
          },
          {
            "id": "060d434bac1dd3ea",
            "type": "leaf",
            "state": {
              "type": "outline",
              "state": {
                "file": "Meals.md"
              }
            }
          }
        ]
      }
    ],
    "direction": "horizontal",
    "width": 300,
    "collapsed": true
  },
  "ribbon": {
    "mostRecentAction": ""
  },
  "active": "0c91a8e7cf1e7cb3",
  "lastOpenFiles": [
    "Locations.md",
    "Meals/Dinner.md",
    "Meals/Breakfast.md",
    "Day-Plans/Day-1.md",
    "Meals.md",
    "Meals/Lunch.md",
    "Meals.md.md"
  ]
}